…
xco2_agg_novo |> 
  dplyr::filter(dist_xco2<0.15) |>
  dplyr::group_by(lon_grid,lat_grid,ano,mes) |> # agora podemos agregar os dados pelas coordenadas do grid
  dplyr::summarise(
    xco2_mean = mean(xco2_new),
    uncertanty_mean = mean(uncertanty),
    xco2_sd = sd(xco2_new),
    nobs = dplyr::n(),
    xco2_se = xco2_sd/sqrt(nobs))
```

    ## # A tibble: 973 × 9
    ## # Groups:   lon_grid, lat_grid, ano [973]
    ##    lon_grid lat_grid   ano   mes xco2_mean uncertanty_mean xco2_sd  nobs xco2_se
    ##       <dbl>    <dbl> <dbl> <dbl>     <dbl>           <dbl>   <dbl> <int>   <dbl>
    ##  1    -72.8    -7.75  2015     2      396.           0.513       0     2       0
    ##  2    -72.5    -9     2015     2      397.           0.587      NA     1      NA
    ##  3    -70.2   -11     2016     2      401.           0.518       0    10       0
    ##  4    -69     -10.8   2016     2      397.           0.565       0     7       0
    ##  5    -69     -10.5   2016     2      400.           0.557       0    20       0
    ##  6    -67.2    -4.5   2015     2      399.           0.772      NA     1      NA
    ##  7    -65.8    -3.5   2015     2      399.           0.592       0     2       0
    ##  8    -65.2    -6.5   2015     2      399.           0.559      NA     1      NA
    ##  9    -65      -7.75  2015     2      399.           0.595       0    12       0
    ## 10    -65      -7.5   2015     2      399.           0.599       0    13       0
    ## # ℹ 963 more rows
…
